{
 "data": [
   {
     "id": "SbBGk",
     "name": "U2",
     "description": "U2 are an Irish rock band from Dublin formed in 1976 ...",
     "year": "1976",
     "genre": "ROCK",
     "country": "Irland"
   },
   {
     "id": "BgtFe",
     "name": "R.E.M",
     "description": "R.E.M. was an alternative rock band formed in Athens, Georgia, United States in 1980 ...",
     "year": "1980",
     "genre": "ALTERNATIVE_ROCK",
     "country": "USA"
   }
 ]
}