{
    "data": [
    
    {
    "id": "1",
    "name": "In Rainbows",
    "band": {
    "id": "1",
    "name": "Radiohead"
    },
    "year": 2007,
    "label": {
      "id": "SR",
      "name": "Self-released"
    },
    "genre": {
       "id": "AR",
       "description": "Alternative rock"
    }
    },
    {
    "id": "2",
    "name": "The Dark Side of the Moon",
    "band": {
    "id": "2",
    "name": "Pink Floyd"
    },
    "year": 1973,
    "label": {
      "id": "HR",
      "name": "Harvest Records"
    },
    "genre": {
       "id": "R",
       "description": "rock"
    }
    },
    {
    "id": "3",
    "name": "Worlds Apart",
    "band": {
    "id": "3",
    "name": "...And You Will Know Us by the Trail of Dead"
    },
    "year": 2005
    },
    {
    "id": "4",
    "name": "Black in Black",
    "band": {
    "id": "4",
    "name": "AC/DC"
    },
    "year": 1980,
    "label": {
      "id": "AR",
      "name": "Atlantic Records"
    },
    "genre": {
       "id": "R",
       "description": "rock"
    }
    },
    {
    "id": "5",
    "name": "Sticky Fingers",
    "band": {
    "id": "5",
    "name": "The Rolling Stones"
    }, 
    "year": 1971 
    }
    ]
    }